…
<img src="man/figures/README-anthromes-1.png" width="100%" /> Create
nicely formatted summaries of the percent land area in each anthrome.

``` r
anthrome_summary(anthromes, inputs_med)
#> # A tibble: 21 x 7
#>    anthrome            `3000BC`  `2000BC`  `1000BC`      `0AD` `1000AD` `2000AD`
#>    <fct>                    [%]       [%]       [%]        [%]      [%]      [%]
#>  1 Urban              0.000000… 0.000000… 0.000000…  0.000000… 0.00000…  1.3435…
#>  2 Mixed settlements  0.010362… 0.010362… 0.010362…  0.021014… 0.12557…  1.1911…
#>  3 Rice villages      0.000000… 0.000000… 0.010689…  0.085413… 0.14963…  0.8229…
#>  4 Irrigated villages 0.000000… 0.105933… 0.287752…  0.546544… 1.05498…  5.4193…
#>  5 Rainfed villages   0.038284… 0.048964… 0.079556…  0.712320… 0.14186…  7.1569…
#>  6 Pastoral villages  0.000000… 0.000000… 0.000000…  0.000000… 0.00000…  0.9703…
#>  7 Residential irrig… 1.154401… 1.280373… 1.158554…  0.569328… 1.15223…  4.0399…
#>  8 Residential rainf… 2.358643… 3.554338… 7.731140… 11.824162… 9.47797… 27.5704…
#>  9 Populated croplan… 4.983536… 5.683022… 5.204140…  4.615843… 5.16068… 10.5713…
#> 10 Remote croplands   0.521449… 1.466865… 2.471521…  3.037484… 3.70718…  2.0869…
#> # … with 11 more rows
```
…
