A gentle introduction to the anthromes R package • anthromes
…
anthrome_summary() also has a “by” argument, which adds an additional grouping factor. The resulting summaries are now in percent of land area under each anthrome in each time period in each of the grouping variables.

anthrome_summary(anthromes_dgg, 
                 mutate(inputs_dgg, pot_veg = as.factor(pot_veg)), 
                 by = pot_veg)
#> # A tibble: 108 x 8
#>    pot_veg anthrome       `3000BC` `2000BC` `1000BC`     `0AD` `1000AD` `2000AD`
#>    <fct>   <fct>               [%]      [%]      [%]       [%]      [%]      [%]
#>  1 3       Urban          0.000000 0.000000 0.000000  0.000000  0.0000…  0.5744…
#>  2 3       Mixed settlem… 0.000000 0.000000 0.000000  0.000000  0.0000…  1.9553…
#>  3 3       Irrigated vil… 0.000000 0.000000 0.000000  0.000000  0.0000…  4.8957…
#>  4 3       Rainfed villa… 0.000000 0.000000 0.000000  0.000000  0.0000… 11.3291…
#>  5 3       Pastoral vill… 0.000000 0.000000 0.000000  0.000000  0.0000…  0.0381…
#>  6 3       Residential i… 0.000000 0.000000 0.000000  0.000000  0.0000…  5.6263…
#>  7 3       Residential r… 0.128218 1.835374 9.421701 16.714982 17.7109… 41.5960…
#>  8 3       Populated cro… 5.265605 9.852276 6.535757  3.962339  3.5436… 10.9493…
#>  9 3       Remote cropla… 0.520486 1.349584 3.454024  2.503946  4.4823…  4.1192…
#> 10 3       Residential r… 0.000000 0.000000 0.000000  0.000000  0.0000…  0.1499…
#> # … with 98 more rows

anthrome_summary(anthromes_dgg, 
                 mutate(inputs_dgg, iso = as.factor(iso)), 
                 by = iso)
#> # A tibble: 97 x 8
#>    iso   anthrome        `3000BC`  `2000BC`  `1000BC`    `0AD` `1000AD` `2000AD`
#>    <fct> <fct>                [%]       [%]       [%]      [%]      [%]      [%]
#>  1 196   Urban            0.0000…   0.0000…   0.0000…   0.000…   0.000…   0.802…
#>  2 196   Mixed settlem…   0.0000…   0.0000…   0.0000…   0.000…   0.000…   7.613…
#>  3 196   Rainfed villa…   0.0000…   0.0000…   0.0000…   0.000…   0.000…   3.166…
#>  4 196   Residential i…   0.0000…   0.0000…   0.0000…   0.000…   0.000…   3.837…
#>  5 196   Residential r…   0.8610…   1.2449…   6.6818…  19.042…  11.691…  22.508…
#>  6 196   Populated cro…  19.8878…  19.5039…  18.9807…  14.176…  13.169…   0.000…
#>  7 196   Remote cropla…   0.0000…   0.0000…   5.0703…   0.000…   5.162…   0.000…
#>  8 196   Inhabited dry…  78.8944…  78.8944…  68.9105…  66.424…  69.620…  61.715…
#>  9 196   Wild drylands    0.3565…   0.3565…   0.3565…   0.356…   0.356…   0.356…
#> 10 368   Inhabited dry… 100.0000… 100.0000… 100.0000… 100.000… 100.000… 100.000…
#> # … with 87 more rows
…
